Intro to R
…
--

- Use `group_by()` and `summarise()`
  
--

```r
df %>%
  group_by(stabbr) %>%
  summarise(selective_avg = mean(adm_rate,na.rm=T))
```

```
## # A tibble: 51 × 2
##    stabbr selective_avg
##    <chr>          <dbl>
##  1 AK             0.827
##  2 AL             0.654
##  3 AR             0.676
##  4 AZ             0.843
##  5 CA             0.592
##  6 CO             0.768
##  7 CT             0.589
##  8 DC             0.529
##  9 DE             0.627
## 10 FL             0.620
## # ℹ 41 more rows
```
…
