Uncertainty
…
# Bootstrap Demo Step 3

- Randomly sample all players: `size = nrow(nba)` (or `nrow(.)`)

```r
set.seed(123)

nba %>%
  sample_n(size = nrow(nba),replace = T) %>% # Same as nrow(.)
  select(namePlayer,slugSeason,isRookie,tov)
```

```
## # A tibble: 530 × 4
##    namePlayer        slugSeason isRookie   tov
##    <chr>             <chr>      <lgl>    <dbl>
##  1 Moritz Wagner     2018-19    TRUE        39
##  2 Sam Dekker        2018-19    FALSE       24
##  3 Joe Harris        2018-19    FALSE      121
##  4 Jonas Valanciunas 2018-19    FALSE       90
##  5 John Holland      2018-19    FALSE        0
##  6 Angel Delgado     2018-19    TRUE         0
##  7 Donovan Mitchell  2018-19    FALSE      218
##  8 Damian Jones      2018-19    FALSE       16
##  9 Luke Kornet       2018-19    FALSE       25
## 10 Justin Anderson   2018-19    FALSE       23
## # ℹ 520 more rows
```
…
# Bootstrap to measure Confidence

--

- Compare rookie versus non-rookie turnovers each season

```r
bsSeasons %>%
  group_by(bsSeasonNumber,isRookie) %>%
  summarise(mean_tov = mean(tov),.groups = 'drop')
```

```
## # A tibble: 200 × 3
##    bsSeasonNumber isRookie mean_tov
##             <int> <lgl>       <dbl>
##  1              1 FALSE        68.6
##  2              1 TRUE         36.9
##  3              2 FALSE        65.6
##  4              2 TRUE         28.5
##  5              3 FALSE        62.5
##  6              3 TRUE         26.5
##  7              4 FALSE        67.5
##  8              4 TRUE         29.9
##  9              5 FALSE        74.8
## 10              5 TRUE         31.3
## # ℹ 190 more rows
```
---

# Bootstrap to measure Confidence

- Compare rookie versus non-rookie turnovers each season

```r
bsSeasons %>%
  group_by(bsSeasonNumber,isRookie) %>%
  summarise(mean_tov = mean(tov),.groups = 'drop') %>%
* spread(isRookie,mean_tov)
```

```
## # A tibble: 100 × 3
##    bsSeasonNumber `FALSE` `TRUE`
##             <int>   <dbl>  <dbl>
##  1              1    68.6   36.9
##  2              2    65.6   28.5
##  3              3    62.5   26.5
##  4              4    67.5   29.9
##  5              5    74.8   31.3
##  6              6    70.7   31.6
##  7              7    73.7   19.8
##  8              8    73.7   33  
##  9              9    65.0   24.3
## 10             10    72.2   28.0
## # ℹ 90 more rows
```
…
# Bootstrap to measure Confidence

- Compare rookie versus non-rookie turnovers each season

```r
bsSeasons %>%
  group_by(bsSeasonNumber,isRookie) %>%
  summarise(mean_tov = mean(tov),.groups = 'drop') %>%
* spread(isRookie,mean_tov) %>%
  filter(complete.cases(.)) %>%
  mutate(rookieBetter = ifelse(`FALSE` > `TRUE`,1,0))
```

```
## # A tibble: 100 × 4
##    bsSeasonNumber `FALSE` `TRUE` rookieBetter
##             <int>   <dbl>  <dbl>        <dbl>
##  1              1    68.6   36.9            1
##  2              2    65.6   28.5            1
##  3              3    62.5   26.5            1
##  4              4    67.5   29.9            1
##  5              5    74.8   31.3            1
##  6              6    70.7   31.6            1
##  7              7    73.7   19.8            1
##  8              8    73.7   33              1
##  9              9    65.0   24.3            1
## 10             10    72.2   28.0            1
## # ℹ 90 more rows
```
…
