Univariate Analysis
…
- To check, follow the process!

---

# The Process: #1 Look

```r
nba %>% 
  select(namePlayer,slugTeam,fgm) %>%
  arrange(-fgm)
```

```
## # A tibble: 530 × 3
##    namePlayer            slugTeam   fgm
##    <chr>                 <chr>    <dbl>
##  1 James Harden          HOU        843
##  2 Bradley Beal          WAS        764
##  3 Kemba Walker          CHA        731
##  4 Giannis Antetokounmpo MIL        721
##  5 Kevin Durant          GSW        721
##  6 Paul George           OKC        707
##  7 Nikola Vucevic        ORL        701
##  8 LaMarcus Aldridge     SAS        684
##  9 Damian Lillard        POR        681
## 10 Karl-Anthony Towns    MIN        681
## # ℹ 520 more rows
```
…
- Time for the **process**!

---

# The Process: #1 Look

```r
nba %>%
  select(namePlayer,agePlayer) %>%
  arrange(-agePlayer)
```

```
## # A tibble: 530 × 2
##    namePlayer     agePlayer
##    <chr>              <dbl>
##  1 Vince Carter          42
##  2 Dirk Nowitzki         41
##  3 Jamal Crawford        39
##  4 Udonis Haslem         39
##  5 Pau Gasol             38
##  6 Kyle Korver           38
##  7 Jose Calderon         37
##  8 Tony Parker           37
##  9 Dwyane Wade           37
## 10 Channing Frye         36
## # ℹ 520 more rows
```
…
# Career Prior to NBA (`org`)

--

- If you chose this as your unordered categorical variable, you probably saw something like the following in step #1 of the process

```r
nba %>%
  count(org) %>%
  arrange(-n)
```

```
## # A tibble: 68 × 2
##    org                        n
##    <fct>                  <int>
##  1 <NA>                     157
##  2 Other                     85
##  3 Kentucky                  25
##  4 Duke                      17
##  5 California-Los Angeles    15
##  6 Kansas                    11
##  7 Arizona                   10
##  8 Texas                     10
##  9 North Carolina             9
## 10 Michigan                   8
## # ℹ 58 more rows
```
…
--

- Wrangle some data and re-calculate

```r
nba %>%
  filter(!is.na(org)) %>%
  filter(org != 'Other') %>%
  count(org) %>%
  arrange(-n)
```

```
## # A tibble: 66 × 2
##    org                        n
##    <fct>                  <int>
##  1 Kentucky                  25
##  2 Duke                      17
##  3 California-Los Angeles    15
##  4 Kansas                    11
##  5 Arizona                   10
##  6 Texas                     10
##  7 North Carolina             9
##  8 Michigan                   8
##  9 Villanova                  7
## 10 Indiana                    6
## # ℹ 56 more rows
```
…
---

# A Preview of Multivariate Analysis

```r
nba %>%
  filter(!is.na(org)) %>%
  filter(org != 'Other') %>%
  group_by(org) %>%
  summarise(tot_pts = sum(pts,na.rm=T))
```

```
## # A tibble: 66 × 2
##    org                    tot_pts
##    <fct>                    <dbl>
##  1 Anadolu Efes S.K.         1270
##  2 Arizona                   5467
##  3 Baylor                     861
##  4 Boston College            1659
##  5 Butler                    1255
##  6 California                1942
##  7 California-Los Angeles    9061
##  8 Cincinnati                 531
##  9 Colorado                  2367
## 10 Connecticut               3634
## # ℹ 56 more rows
```
…
---

# A Preview of Multivariate Analysis

```r
nba %>%
  filter(!is.na(org)) %>%
  filter(org != 'Other') %>%
  filter(!str_detect(org,"CB|KK|rytas|FC|B.C.|S.K.|Madrid")) %>%
  group_by(org) %>%
  summarise(tot_pts = sum(pts,na.rm=T))
```

```
## # A tibble: 57 × 2
##    org                    tot_pts
##    <fct>                    <dbl>
##  1 Arizona                   5467
##  2 Baylor                     861
##  3 Boston College            1659
##  4 Butler                    1255
##  5 California                1942
##  6 California-Los Angeles    9061
##  7 Cincinnati                 531
##  8 Colorado                  2367
##  9 Connecticut               3634
## 10 Creighton                 1230
## # ℹ 47 more rows
```
…
