Data Wrangling in R
…
```r
MI_raw  <- read_rds('https://github.com/jbisbee1/DS1000_F2024/raw/main/data/MI2020_ExitPoll.rds')
```

--

- And take a look

```r
MI_raw
```

```
## # A tibble: 1,231 × 63
##       ID WEIGHT LALVOTERID    GROUP       ZIP DISTRICT    Z1
##    <dbl>  <dbl> <chr>         <dbl+lbl> <dbl>    <dbl> <dbl>
##  1     9  0.405 LALMI6290066  3 [3]     49327        2    NA
##  2    66  1.81  LALMI2492492  1 [1]     48234       14    NA
##  3   225  0.860 LALMI5489814… 4 [4]     48301        9 48322
##  4   243  0.199 LALMI5053772… 1 [1]     48130        7 48130
##  5   286  0.177 LALMI6831689  1 [1]     49946        1    NA
##  6   293  0.492 LALMI4019782  1 [1]     48615        4    NA
##  7   365  1.37  LALMI4151378  1 [1]     48906        4 48813
##  8   367  1.15  LALMI5912584  1 [1]     49442        2    NA
##  9   388  1.50  LALMI6635050  1 [1]     48451        5    NA
## 10   417  1.30  LALMI3567125  1 [1]     48197       12    NA
## # ℹ 1,221 more rows
## # ℹ 56 more variables: S1 <dbl+lbl>, S2A <dbl+lbl>,
## #   S2B <dbl+lbl>, S3 <dbl+lbl>, S4 <dbl+lbl>,
## #   VERSION <dbl+lbl>, PRSMI20 <dbl+lbl>,
## #   SENMI20 <dbl+lbl>, TIME16 <dbl+lbl>, ISSUE20 <dbl+lbl>,
## #   QLT20 <dbl+lbl>, TEMPBIDEN <dbl+lbl>,
## #   TEMPTRUMP <dbl+lbl>, CONTROLSEN <dbl+lbl>, …
```
…
--

- Otherwise: give me whatever `AGE10` is

--

```r
MI_raw %>%
  mutate(AGE10_new = ifelse(AGE10 == 99,NA,AGE10)) %>%
  select(AGE10,AGE10_new) %>%
  slice(c(35,1:20)) # Don't need to know slice() yet, ignore
```

```
## # A tibble: 21 × 2
##    AGE10                     AGE10_new
##    <dbl+lbl>                     <dbl>
##  1 99 [[DON'T READ] Refused]        NA
##  2  2 [25 and 29,]                   2
##  3 10 [75 or over?]                 10
##  4  7 [50 and 59,]                   7
##  5  9 [65 and 74,]                   9
##  6  8 [60 and 64,]                   8
##  7  7 [50 and 59,]                   7
##  8  9 [65 and 74,]                   9
##  9  8 [60 and 64,]                   8
## 10  6 [45 and 49,]                   6
## # ℹ 11 more rows
```
…
# Step 2: Wrangle

- Thus we need to use the **assignment operator** (`<-`)

```r
MI_final <- MI_raw %>%
  mutate(AGE10_new = ifelse(AGE10 == 99,NA,AGE10))

MI_final %>%
  select(AGE10,AGE10_new) %>%
  slice(c(35,1:20)) # Don't need to know slice() yet, ignore
```

```
## # A tibble: 21 × 2
##    AGE10                     AGE10_new
##    <dbl+lbl>                     <dbl>
##  1 99 [[DON'T READ] Refused]        NA
##  2  2 [25 and 29,]                   2
##  3 10 [75 or over?]                 10
##  4  7 [50 and 59,]                   7
##  5  9 [65 and 74,]                   9
##  6  8 [60 and 64,]                   8
##  7  7 [50 and 59,]                   7
##  8  9 [65 and 74,]                   9
##  9  8 [60 and 64,]                   8
## 10  6 [45 and 49,]                   6
## # ℹ 11 more rows
```
…
--

```r
MI_final <- MI_final %>%
  mutate(preschoice = as.character(haven::as_factor(PRSMI20)),
         Qlty = as.character(haven::as_factor(QLT20)),
         LGBT_lab = as.character(haven::as_factor(LGBT)))

MI_final %>%
  select(preschoice,Qlty,LGBT_lab)
```

```
## # A tibble: 1,231 × 3
##    preschoice                   Qlty                LGBT_lab
##    <chr>                        <chr>               <chr>   
##  1 Joe Biden, the Democrat      Has good judgment   <NA>    
##  2 Joe Biden, the Democrat      <NA>                No      
##  3 Joe Biden, the Democrat      <NA>                No      
##  4 Joe Biden, the Democrat      Has good judgment   <NA>    
##  5 Joe Biden, the Democrat      Cares about people… <NA>    
##  6 Joe Biden, the Democrat      <NA>                No      
##  7 Joe Biden, the Democrat      <NA>                No      
##  8 Joe Biden, the Democrat      <NA>                No      
##  9 Donald Trump, the Republican Cares about people… <NA>    
## 10 Joe Biden, the Democrat      Cares about people… <NA>    
## # ℹ 1,221 more rows
```
…
# Let's Wrangle!

- We are interested in presidential vote choice (`PRSMI20` or `preschoice`) and the quality of the candidate the respondent likes most (`QLT20` or `Qlty`)

--

- Look at these first

```r
MI_final %>% select(preschoice,Qlty)
```

```
## # A tibble: 1,231 × 2
##    preschoice                   Qlty                      
##    <chr>                        <chr>                     
##  1 Joe Biden, the Democrat      Has good judgment         
##  2 Joe Biden, the Democrat      <NA>                      
##  3 Joe Biden, the Democrat      <NA>                      
##  4 Joe Biden, the Democrat      Has good judgment         
##  5 Joe Biden, the Democrat      Cares about people like me
##  6 Joe Biden, the Democrat      <NA>                      
##  7 Joe Biden, the Democrat      <NA>                      
##  8 Joe Biden, the Democrat      <NA>                      
##  9 Donald Trump, the Republican Cares about people like me
## 10 Joe Biden, the Democrat      Cares about people like me
## # ℹ 1,221 more rows
```
…
---

# Choosing the right function

- But `count()` is less useful for continuous variables

```r
MI_final %>%
  count(WEIGHT)
```

```
## # A tibble: 411 × 2
##    WEIGHT     n
##     <dbl> <int>
##  1  0.100     1
##  2  0.113     1
##  3  0.119     1
##  4  0.133     2
##  5  0.141     1
##  6  0.142     1
##  7  0.144     1
##  8  0.146     1
##  9  0.147     1
## 10  0.149     5
## # ℹ 401 more rows
```
…
--

- This is our **wrangled** data

```r
MI_final
```

```
## # A tibble: 1,231 × 14
##    SEX        AGE10           PARTYID     WEIGHT QRACEAI  
##    <dbl+lbl>  <dbl+lbl>       <dbl+lbl>    <dbl> <dbl+lbl>
##  1 2 [Female]  2 [25 and 29,] 3 [Indepen…  0.405 1 [White]
##  2 2 [Female] 10 [75 or over… 1 [Democra…  1.81  2 [Black]
##  3 2 [Female]  7 [50 and 59,] 1 [Democra…  0.860 1 [White]
##  4 1 [Male]    9 [65 and 74,] 3 [Indepen…  0.199 1 [White]
##  5 2 [Female]  8 [60 and 64,] 3 [Indepen…  0.177 1 [White]
##  6 2 [Female]  7 [50 and 59,] 3 [Indepen…  0.492 1 [White]
##  7 1 [Male]    9 [65 and 74,] 1 [Democra…  1.37  1 [White]
##  8 1 [Male]    8 [60 and 64,] 1 [Democra…  1.15  1 [White]
##  9 2 [Female]  6 [45 and 49,] 2 [Republi…  1.50  1 [White]
## 10 1 [Male]    8 [60 and 64,] 1 [Democra…  1.30  2 [Black]
## # ℹ 1,221 more rows
## # ℹ 9 more variables: EDUC18 <dbl+lbl>, LGBT <dbl+lbl>,
## #   BRNAGAIN <dbl+lbl>, LATINOS <dbl+lbl>,
## #   RACISM20 <dbl+lbl>, QLT20 <dbl+lbl>, Qlty <chr>,
## #   PRSMI20 <dbl+lbl>, preschoice <chr>
```
…
