Multivariate Analysis
…
# Dates and More Dimensions

--

- To test the .blue[timing of polls theory], let's look at how predicted support varies over time

--

```r
poll %>%
  select(StartDate,EndDate,DaysinField)
```

```
## # A tibble: 528 × 3
##    StartDate  EndDate   DaysinField
##    <chr>      <chr>           <dbl>
##  1 10/31/2020 11/2/2020           3
##  2 10/31/2020 11/2/2020           3
##  3 10/29/2020 11/2/2020           5
##  4 11/1/2020  11/1/2020           1
##  5 11/1/2020  11/1/2020           1
##  6 10/30/2020 11/1/2020           3
##  7 10/31/2020 11/2/2020           3
##  8 10/30/2020 11/1/2020           3
##  9 10/29/2020 11/1/2020           4
## 10 10/29/2020 11/1/2020           4
## # ℹ 518 more rows
```
…
---

# Looking at data

```r
stateProbs
```

```
## # A tibble: 50 × 6
##    StateName   State BidenProb1 BidenProb2 BidenProb3    EV
##    <chr>       <chr>      <dbl>      <dbl>      <dbl> <dbl>
##  1 Alabama     AL         0          0.389      0.407     9
##  2 Alaska      AK         0          0.442      0.466     3
##  3 Arizona     AZ         0.840      0.484      0.519    11
##  4 Arkansas    AR         0          0.381      0.395     6
##  5 California  CA         1          0.618      0.661    55
##  6 Colorado    CO         1          0.534      0.571     9
##  7 Connecticut CT         1          0.584      0.631     7
##  8 Delaware    DE         1          0.603      0.627     3
##  9 Florida     FL         0.798      0.486      0.517    29
## 10 Georgia     GA         0.548      0.474      0.504    16
## # ℹ 40 more rows
```
…
